{
    id: 1,
    name: 'AIWO 737A1 Laptop',
    price: 699.99,
    currency: 'EUR',
    image: 'https://www.gizmochina.com/wp-content/uploads/2018/08/AIWO-737A1-Laptop-400x400.jpg',
  },
  {
    id: 2,
    name: 'Huawei Matebook 13 Laptop',
    price: 549.99,
    currency: 'EUR',
    image: 'https://www.priceboon.com/wp-content/uploads/2019/01/20181220094634_19726-400x400.jpg',
  },
  {
    id: 4,
    name: 'ASUS FX504 Gaming Laptop',
    price: 999.99,
    currency: 'EUR',
    image: 'https://techbuyz.co.ke/wp-content/uploads/2019/06/ASUS-4.jpeg',
  },
  {
    id: 6,
    name: 'Microsoft Surface 2 Laptop',
    price: 1119.99,
    currency: 'EUR',
    image: 'https://www02.cp-static.com/objects/medium_pic/6/624/1350586965_notebooks-laptops-microsoft-surface-laptop-2-lqm-00008.jpg',
  },
  {
    id: 5,
    name: 'Xiaomi RedmiBook',
    price: 599.99,
    currency: 'EUR',
    image: 'https://gloimg.chinabrands.com/cb/pdm-product-pic/Electronic/2019/12/20/grid-img/1576861446902898099.jpg',
  },
  {
    id: 3,
    name: 'Macbook Pro',
    price: 1449.99,
    currency: 'EUR',
    image: 'https://www.allrent.nl/wp-content/uploads/2015/01/Apple-MacBook-Pro-154-i5-02-400x400.jpg',
  }